<?xml version="1.0" encoding="UTF-8" standalone="no"?>
<svg
   xmlns:dc="http://purl.org/dc/elements/1.1/"
   xmlns:cc="http://creativecommons.org/ns#"
   xmlns:rdf="http://www.w3.org/1999/02/22-rdf-syntax-ns#"
   xmlns:svg="http://www.w3.org/2000/svg"
   xmlns="http://www.w3.org/2000/svg"
   xmlns:sodipodi="http://sodipodi.sourceforge.net/DTD/sodipodi-0.dtd"
   xmlns:inkscape="http://www.inkscape.org/namespaces/inkscape"
   sodipodi:docname="portrait1.svg"
   inkscape:version="1.0 (4035a4f, 2020-05-01)"
   id="svg8"
   version="1.1"
   viewBox="0 0 210 297"
   height="297mm"
   width="210mm">
  <defs
     id="defs2" />
  <sodipodi:namedview
     inkscape:window-maximized="0"
     inkscape:window-y="33"
     inkscape:window-x="83"
     inkscape:window-height="943"
     inkscape:window-width="1434"
     showgrid="false"
     inkscape:document-rotation="0"
     inkscape:current-layer="layer1"
     inkscape:document-units="mm"
     inkscape:cy="481.34386"
     inkscape:cx="456.02084"
     inkscape:zoom="0.45805206"
     inkscape:pageshadow="2"
     inkscape:pageopacity="0.0"
     borderopacity="1.0"
     bordercolor="#666666"
     pagecolor="#ffffff"
     id="base" />
  <metadata
     id="metadata5">
    <rdf:RDF>
      <cc:Work
         rdf:about="">
        <dc:format>image/svg+xml</dc:format>
        <dc:type
           rdf:resource="http://purl.org/dc/dcmitype/StillImage" />
        <dc:title></dc:title>
      </cc:Work>
    </rdf:RDF>
  </metadata>
  <g
     id="layer1"
     inkscape:groupmode="layer"
     inkscape:label="Calque 1">
    <rect
       y="49.892857"
       x="57.452377"
       height="38.55357"
       width="52.916664"
       id="rect10"
       style="opacity:0;fill:#c83737;stroke:#000000;stroke-width:0.264999" />
    <path
       id="path14"
       d="M 0.75594853,-1.5119001 212.42263,0.01145829 V 300.11308 L 0.75594853,299.35139 Z"
       style="fill:#d7f4e3;stroke:#000000;stroke-width:0.26458300000000001px;stroke-linecap:butt;stroke-linejoin:miter;stroke-opacity:1" />
    <path
       sodipodi:nodetypes="csssscssscc"
       id="path462"
       d="m 13.996479,87.151193 c 0,0 53.141702,-59.495603 73.358662,-56.029841 20.216919,3.465764 83.755909,-14.440679 87.799289,10.397291 4.0434,24.837969 26.57086,16.173562 27.72611,34.080006 1.15526,17.906441 -8.6644,50.253571 -1.73287,53.141711 6.93152,2.88814 4.62101,30.03661 4.62101,30.03661 0,0 1.73288,53.1417 -8.08678,58.34034 -9.81966,5.19865 -67.58238,25.41561 -81.44543,9.24205 C 102.37342,210.18579 74.647337,274.3024 53.275137,259.2841 31.902927,244.26579 8.7978429,183.61494 8.7978429,183.61494 c 0,0 -12.7078007,-95.886122 5.1986361,-96.463747 z"
       style="fill:#b7c8b7;stroke:none;stroke-width:0.26458300000000001px;stroke-linecap:butt;stroke-linejoin:miter;stroke-opacity:1" />
    <g
       id="g460"
       transform="translate(-5.5094037,30.595666)">
      <g
         style="display:inline"
         inkscape:label="Calque 2"
         id="layer2">
        <path
           sodipodi:nodetypes="cssssssscscsssscssc"
           id="path848"
           d="m 59.978496,96.858475 c 2.29111,-21.857579 8.702192,-26.721434 2.717472,-22.710304 -6.037345,4.046401 11.646309,-19.216409 15.722517,-17.27536 4.076208,1.941052 21.157462,-13.781465 30.086295,-8.346522 8.92884,5.434947 14.46452,-2.463812 19.02231,6.793683 4.72501,9.597123 9.74843,28.617745 9.12295,41.150293 -0.57726,11.566435 7.76203,14.886195 2.91157,21.545675 -6.56805,9.01766 -10.0095,22.04892 -12.42273,22.12799 -3.69112,0.12093 -0.19411,0.1941 -0.19411,0.1941 9.36035,4.01158 8.10753,-5.87012 12.42274,-6.01726 4.65581,-0.15875 -10.86989,24.45725 -10.86989,24.45725 0,0 14.94609,-8.73473 14.55788,-13.39325 -0.38821,-4.65853 11.064,13.97557 7.5701,17.27535 -3.49389,3.29979 -33.6646,24.50064 -42.38159,23.91135 -25.742341,-1.74025 -20.830761,-6.81432 -20.830761,-6.81432 -7.336916,-2.24649 -10.935816,-14.16518 -10.935816,-14.16518 -1.831595,-4.38253 -5.842021,-10.42111 -9.064941,-15.20352 -19.519661,-28.96472 -9.107086,-14.01694 -6.659828,-14.4599 2.300232,-0.41635 -3.339736,-28.50449 -0.774168,-39.070075 z"
           style="fill:#e9c6af;stroke:#e9c6af;stroke-width:0.264583px;stroke-linecap:butt;stroke-linejoin:miter;stroke-opacity:1" />
        <path
           sodipodi:nodetypes="cssssssc"
           id="path850"
           d="m 100.15826,100.15826 c 21.13323,-7.555783 14.99708,-9.367682 23.48673,-7.181887 5.66486,1.458507 9.98502,3.611488 11.84041,4.076208 1.77631,0.444914 -3.8821,2.329262 -6.40547,1.55284 -2.52337,-0.77642 -3.90731,-0.500358 -7.18188,-1.552839 -3.33342,-1.071394 -5.66622,2.023665 -9.89937,3.687998 -4.35049,1.71047 -9.70526,3.49389 -11.45221,3.29979 -1.746943,-0.19411 -0.38821,-3.88211 -0.38821,-3.88211 z"
           style="fill:#aa8800;stroke:none;stroke-width:0.264583px;stroke-linecap:butt;stroke-linejoin:miter;stroke-opacity:1" />
        <path
           sodipodi:nodetypes="csscsc"
           id="path852"
           d="m 59.978496,96.858475 c -3.536456,-1.30612 12.364619,4.637865 13.781465,4.270315 1.367833,-0.35483 4.852631,4.07621 4.270314,4.65852 -0.582316,0.58232 -15.334309,-4.65852 -15.334309,-4.65852 0,0 -1.667793,1.35141 -2.717472,3.29979 -0.943764,1.75178 -0.226093,-12.776703 2e-6,-7.570105 z"
           style="fill:#aa8800;stroke:none;stroke-width:0.264583px;stroke-linecap:butt;stroke-linejoin:miter;stroke-opacity:1" />
        <path
           sodipodi:nodetypes="csssssssc"
           id="path854"
           d="m 81.912378,106.36963 c -2.58269,3.53562 2.973749,5.74827 2.717473,8.54063 -0.34753,3.78664 -1.044397,14.23188 -1.164632,17.08125 -0.245779,5.82455 -2.392554,5.59704 -1.746946,8.34652 1.313279,5.59293 2.831947,3.78281 3.882103,4.46442 0.479639,0.31131 3.146439,-0.75401 5.240839,-6.98779 1.345601,-4.00505 0.46638,-23.8584 2.523366,-25.23367 1.827864,-1.22208 3.554272,-5.9278 2.135159,-6.59957 -1.330034,-0.6296 -8.910411,-3.75312 -13.587362,0.38821"
           style="fill:#ffe6d5;stroke:#deaa87;stroke-width:0.264583px;stroke-linecap:butt;stroke-linejoin:miter;stroke-opacity:1" />
        <path
           sodipodi:nodetypes="ccssc"
           id="path856"
           d="m 108.13505,121.56298 c -0.71015,-1.73018 16.69269,-0.23505 24.06905,-4.07621 3.50118,2.26104 -6.13782,23.96658 -12.22863,22.5162 -7.52415,-1.79169 -16.98848,-3.08178 -16.69305,-9.70526 0.19719,-4.42091 1.43553,-8.39302 4.85263,-8.73473 z"
           style="fill:#ffd5d5;stroke:#deaa87;stroke-width:0.264583px;stroke-linecap:butt;stroke-linejoin:miter;stroke-opacity:1" />
        <path
           style="fill:#ffd5d5;stroke:#deaa87;stroke-width:0.264583px;stroke-linecap:butt;stroke-linejoin:miter;stroke-opacity:1"
           d="m 76.098462,122.85803 c -2.545964,-0.54808 -7.075758,2.15289 -11.824915,0.13306 -1.947015,1.71832 4.415011,14.08222 7.837746,12.35577 3.555544,-1.79344 8.719069,-2.99071 9.367734,-7.48885 0.421005,-2.91944 -3.391832,-4.96486 -5.380565,-4.99998 z"
           id="path856-6"
           sodipodi:nodetypes="ccssc" />
        <path
           sodipodi:nodetypes="csssc"
           id="path873"
           d="m 90.474801,142.00025 c 0,0 7.685067,-2.78221 8.347957,-1.1543 0.662877,1.6279 2.738862,3.25901 1.216772,4.29541 -1.522105,1.03639 -5.247664,-2.14486 -7.890303,-0.79104 -2.642643,1.35382 -1.674426,-2.35007 -1.674426,-2.35007 z"
           style="fill:#ffe6d5;stroke:#deaa87;stroke-width:0.264583px;stroke-linecap:butt;stroke-linejoin:miter;stroke-opacity:1" />
        <path
           sodipodi:nodetypes="cscssc"
           id="path875"
           d="m 76.690028,76.687709 c 0,-9.97439 7.680712,-18.523547 16.693043,-15.334306 10.325039,3.653777 10.871959,10.678906 10.869879,10.675783 0,0 2.13515,13.393255 0.1941,14.946097 -1.94105,1.552843 -5.659631,8.347932 -13.587345,9.705258 C 84.266512,97.80938 80.658014,97.6744 76.690028,76.687709 Z"
           style="fill:#ffe6d5;stroke:#deaa87;stroke-width:0.264583px;stroke-linecap:butt;stroke-linejoin:miter;stroke-opacity:1" />
        <path
           sodipodi:nodetypes="cssc"
           id="path877"
           d="m 88.706059,148.68455 c 0,0 1.16463,-3.10568 3.105682,-2.91157 1.941052,0.1941 3.531866,0.2756 5.823156,0.77642 2.135156,0.46669 -8.928838,0.67211 -8.928838,2.13515 z"
           style="fill:#502d16;stroke:#000000;stroke-width:0.264583px;stroke-linecap:butt;stroke-linejoin:miter;stroke-opacity:1" />
        <path
           sodipodi:nodetypes="cssc"
           id="path881"
           d="m 97.850735,172.36538 c 1.162491,-0.62794 11.871065,-0.89638 13.546825,-0.1941 1.83501,0.76902 -5.46244,4.65852 -7.64741,4.46442 -2.18497,-0.19411 -7.647389,-1.74695 -5.899415,-4.27032 z"
           style="fill:#a05a2c;stroke:#502d16;stroke-width:0.264582px;stroke-linecap:butt;stroke-linejoin:miter;stroke-opacity:1" />
        <path
           sodipodi:nodetypes="cssc"
           id="path883"
           d="m 101.25336,110.85064 c -0.91697,1.23357 -1.52557,4.69685 -1.12473,5.26194 0.40084,0.56509 2.68826,4.0557 3.84047,2.62192 1.15219,-1.43378 -4.170505,-3.02071 -2.71574,-7.88386 z"
           style="fill:#d38d5f;stroke:#a05a2c;stroke-width:0.264583px;stroke-linecap:butt;stroke-linejoin:miter;stroke-opacity:1" />
        <path
           sodipodi:nodetypes="cssc"
           id="path885"
           d="m 62.691388,116.37105 c 0,0 10.422711,3.62991 14.667443,0.75229 4.244727,-2.87762 -3.281014,4.69739 -8.311759,5.54601 -6.79933,1.14695 -7.599235,-6.4028 -6.355684,-6.2983 z"
           style="fill:#d38d5f;stroke:#a05a2c;stroke-width:0.264583px;stroke-linecap:butt;stroke-linejoin:miter;stroke-opacity:1" />
        <path
           sodipodi:nodetypes="csssc"
           id="path887"
           d="m 62.683566,91.133506 c 0.524177,0.03487 4.243694,-22.478212 8.750211,-26.263666 5.083846,-4.270409 6.544859,-7.733388 12.910653,-6.922584 6.393708,0.814359 -11.565812,8.387168 -11.876983,11.854693 -0.344515,3.839137 -7.421593,22.179748 -9.783881,21.331557 z"
           style="fill:#deaa87;stroke:#d38d5f;stroke-width:0.264583px;stroke-linecap:butt;stroke-linejoin:miter;stroke-opacity:1" />
        <path
           sodipodi:nodetypes="cscsc"
           id="path889"
           d="m 109.08711,55.125867 c 0,0 7.9583,-3.882103 13.97556,2.523367 6.01726,6.405469 5.43494,17.275358 5.43494,17.275358 0,0 -8.34652,-0.194105 -9.70525,-6.599574 -1.35874,-6.40547 -9.70525,-13.199151 -9.70525,-13.199151 z"
           style="fill:#deaa87;stroke:#d38d5f;stroke-width:0.264583px;stroke-linecap:butt;stroke-linejoin:miter;stroke-opacity:1" />
        <path
           sodipodi:nodetypes="csssssc"
           id="path891"
           d="m 104.42858,113.35742 c 1.90286,-2.56333 3.25663,-4.23911 3.79621,-4.48229 1.71818,-0.77437 5.32627,-2.88659 6.68546,-2.5055 1.40798,0.39477 6.99945,-0.1618 12.03452,2.52336 3.32178,1.77148 -7.00853,5.79848 -8.34652,5.82316 -1.41445,0.0261 -6.84784,-0.47318 -9.49775,-0.1941 -1.76201,0.18557 -4.67381,-0.35091 -4.67192,-1.16463 z"
           style="fill:#f2f2f2;stroke:#000000;stroke-width:0.264583px;stroke-linecap:butt;stroke-linejoin:miter;stroke-opacity:1" />
        <path
           sodipodi:nodetypes="csc"
           id="path893"
           d="m 109.07817,114.51758 c -4.27031,-0.97052 -1.93212,-4.65406 -1.54391,-5.04227 l 0.38821,-0.38821"
           style="fill:none;stroke:#000000;stroke-width:0.264583px;stroke-linecap:butt;stroke-linejoin:miter;stroke-opacity:1" />
        <path
           sodipodi:nodetypes="cssssc"
           id="path895"
           d="m 113.98543,106.48731 c 0,0 -0.49486,2.47785 0.17129,3.58818 0.98954,1.64935 2.30078,2.0157 3.42233,2.29369 0,0 4.30053,-0.53605 4.35581,-1.35771 0.0302,-0.44948 0.999,-0.53599 0.95985,-1.99887 -0.0296,-1.10618 -0.14489,-1.68485 -0.14489,-1.68485"
           style="fill:#d7eef4;stroke:#000000;stroke-width:0.264583px;stroke-linecap:butt;stroke-linejoin:miter;stroke-opacity:1" />
        <path
           sodipodi:nodetypes="cssc"
           id="path899"
           d="m 118.88043,108.47722 c 0,0 1.52341,-0.66142 0.42493,-1.73295 0,0 -3.80042,-1.21455 -3.34834,0.79867 0.45208,2.01324 2.92341,0.93428 2.92341,0.93428 z"
           style="fill:#000000;stroke:#000000;stroke-width:0.264583px;stroke-linecap:butt;stroke-linejoin:miter;stroke-opacity:1" />
        <path
           sodipodi:nodetypes="sssss"
           d="m 118.88043,108.47722 c 1.10409,-0.71411 0.11843,2.52781 2.06732,3.17647 0.8106,0.2698 -3.92144,-2.36481 -4.36025,-1.29386 -0.54274,1.32462 -2.94571,-3.09869 -2.36765,-3.58281 0.52536,-0.44002 1.51057,3.73759 4.66058,1.7002 z"
           style="opacity:1;fill:#dbe2e3;stroke:none;stroke-width:0.264584"
           id="path903" />
        <circle
           r="0.75489199"
           cy="107.40054"
           cx="116.5965"
           id="path906"
           style="opacity:0.45;fill:#ffffff;stroke-width:0.264583" />
        <path
           sodipodi:nodetypes="cssssscssc"
           id="path908"
           d="m 84.472529,161.61912 c 0,0 2.093124,-3.13968 3.438704,-2.99017 1.345581,0.1495 1.644597,1.04656 2.242635,1.19607 0.598035,0.14951 3.737722,-2.24264 4.634776,-1.79411 0.897054,0.44852 1.794107,0.14951 4.186246,1.34558 2.39214,1.19607 16.59549,2.54165 16.29647,3.88723 -0.29902,1.34558 -12.55874,0 -12.55874,0 0.35773,-0.44716 -4.53541,0.21219 -6.727907,1.19607 -1.03882,0.46617 -3.289194,0.89706 -4.933794,0.44853 -1.644597,-0.44853 -6.57839,-3.2892 -6.57839,-3.2892 z"
           style="fill:#a02c2c;stroke:#c83737;stroke-width:0.264583px;stroke-linecap:butt;stroke-linejoin:miter;stroke-opacity:1" />
        <path
           sodipodi:nodetypes="cssc"
           id="path910"
           d="m 115.12185,163.56274 c 0.01,-0.13079 -12.6473,6.28334 -16.146958,5.68133 -4.450389,-0.76556 -9.440799,-1.28301 -9.718078,-3.58821 -0.287901,-2.39351 -4.784286,-4.03674 -4.784286,-4.03674"
           style="fill:#a02c2c;stroke:#c83737;stroke-width:0.264583px;stroke-linecap:butt;stroke-linejoin:miter;stroke-opacity:1" />
        <path
           sodipodi:nodetypes="cssssc"
           id="path912"
           d="m 76.928215,114.82283 c 0,0 4.554135,-1.7941 2.909538,-4.03673 -1.644599,-2.24264 -7.475444,-4.33576 -9.568571,-3.43871 -2.093124,0.89706 -4.186249,0.44853 -5.232811,2.54165 -1.046562,2.09313 0.448529,3.73773 1.196072,4.18625 0.747546,0.44853 12.190861,2.54165 10.695772,0.74754 z"
           style="fill:#f2f2f2;stroke:#000000;stroke-width:0.264583px;stroke-linecap:butt;stroke-linejoin:miter;stroke-opacity:1" />
        <path
           sodipodi:nodetypes="cscc"
           id="path914"
           d="m 79.84958,111.68315 c 0,0 2.359563,3.88723 1.348322,4.33576 -1.011242,0.44852 -4.269687,-1.19608 -4.269687,-1.19608 2.584337,-1.19606 2.921365,-3.13968 2.921365,-3.13968 z"
           style="fill:#e6e6e6;stroke:#000000;stroke-width:0.264583px;stroke-linecap:butt;stroke-linejoin:miter;stroke-opacity:1" />
        <path
           sodipodi:nodetypes="cssc"
           id="path916"
           d="m 68.624587,107.94543 c 0,0 -0.598038,4.63477 1.345578,5.23281 1.943616,0.59803 10.730298,1.72892 7.475445,-3.88723 -1.593837,-2.75012 -9.584717,-1.86113 -8.821023,-1.34558 z"
           style="fill:#d5f6ff;stroke:#000000;stroke-width:0.264583px;stroke-linecap:butt;stroke-linejoin:miter;stroke-opacity:1" />
        <path
           id="path903-9"
           style="opacity:1;fill:#dbe2e3;stroke-width:0.264583"
           d="m 72.091923,109.92708 c -0.911238,-0.94795 -0.694105,2.43353 -2.739746,2.6187 -0.850842,0.077 4.358749,-1.40405 4.540672,-0.26107 0.225006,1.4137 3.576987,-2.34185 3.12514,-2.94547 -0.410645,-0.54863 -2.326274,3.29239 -4.926066,0.58784 z"
           sodipodi:nodetypes="sssss" />
        <path
           style="fill:#000000;stroke:#000000;stroke-width:0.264583px;stroke-linecap:butt;stroke-linejoin:miter;stroke-opacity:1"
           d="m 74.820536,109.93306 c 0,0 1.58683,-0.49013 0.612662,-1.67581 0,0 -3.644062,-1.62454 -3.415795,0.42615 0.228265,2.05071 2.803133,1.24966 2.803133,1.24966 z"
           id="path899-6"
           sodipodi:nodetypes="cssc" />
        <circle
           style="opacity:0.45;fill:#ffffff;stroke-width:0.264583"
           id="path906-0"
           cx="74.829201"
           cy="108.61823"
           r="0.75489199" />
        <path
           sodipodi:nodetypes="cssssc"
           id="path981"
           d="m 104.42858,113.35742 c 0.0875,0.0375 -1.63416,-5.52822 3.71183,-9.46973 8.61945,-6.354978 17.01493,-3.08781 19.31946,-3.40216 3.35912,-0.45822 10.94527,3.22817 4.86024,7.53337 -2.08536,1.4754 -2.0656,2.43013 -3.76668,2.91615 -1.70109,0.48602 -8.62693,3.40217 -8.62693,3.40217 0,0 8.99145,-3.52368 7.53337,-4.86025 -1.45807,-1.33656 -4.71005,-2.14922 -4.71005,-2.14922 0,0 -8.76439,-0.84044 -8.76439,-0.84044 0,0 -6.06296,2.59979 -6.06296,2.59979 z"
           style="fill:#000000;stroke:#000000;stroke-width:0.264583px;stroke-linecap:butt;stroke-linejoin:miter;stroke-opacity:1" />
        <path
           sodipodi:nodetypes="csscsc"
           id="path983"
           d="m 79.84958,111.68315 c 0,0 -3.297534,-6.2975 -9.034372,-6.94914 -3.962648,-0.45012 -6.726704,-3.18088 -10.097964,1.03569 -3.333299,4.1691 5.696286,8.80335 5.696286,8.80335 -2.541773,-7.384 -0.131117,-5.39628 2.211057,-7.016 2.289548,-1.58334 11.357737,0.79487 11.224993,4.1261 z"
           style="fill:#000000;stroke:#000000;stroke-width:0.264583px;stroke-linecap:butt;stroke-linejoin:miter;stroke-opacity:1" />
        <path
           sodipodi:nodetypes="cscc"
           id="path985"
           d="m 127.53869,112.50143 c 0,0 2.78265,-1.40632 3.29442,0.2022 0.51177,1.60851 0.22619,2.28287 0.22619,2.28287 -0.78145,-1.34888 -1.55755,-2.70488 -3.52061,-2.48507 z"
           style="fill:#000000;stroke:#000000;stroke-width:0.264583px;stroke-linecap:butt;stroke-linejoin:miter;stroke-opacity:1" />
        <path
           style="display:inline;fill:#000000;stroke:#000000;stroke-width:0.264583px;stroke-linecap:butt;stroke-linejoin:miter;stroke-opacity:1"
           d="m 124.61556,113.57221 c 0,0 2.78265,-1.40632 3.29442,0.2022 0.51177,1.60851 0.22619,2.28287 0.22619,2.28287 -0.78145,-1.34888 -1.55755,-2.70488 -3.52061,-2.48507 z"
           id="path985-9"
           sodipodi:nodetypes="cscc" />
        <path
           style="display:inline;fill:#000000;stroke:#000000;stroke-width:0.264583px;stroke-linecap:butt;stroke-linejoin:miter;stroke-opacity:1"
           d="m 122.01219,114.48764 c 0,0 2.78265,-1.40632 3.29442,0.2022 0.51177,1.60851 0.22619,2.28287 0.22619,2.28287 -0.78145,-1.34888 -1.55755,-2.70488 -3.52061,-2.48507 z"
           id="path985-8"
           sodipodi:nodetypes="cscc" />
        <path
           sodipodi:nodetypes="cscc"
           id="path985-8-3"
           d="m 118.86816,115.39556 c 0,0 2.78265,-1.40632 3.29442,0.2022 0.51177,1.60851 0.22619,2.28287 0.22619,2.28287 -0.78145,-1.34888 -1.55755,-2.70488 -3.52061,-2.48507 z"
           style="display:inline;fill:#000000;stroke:#000000;stroke-width:0.264583px;stroke-linecap:butt;stroke-linejoin:miter;stroke-opacity:1" />
        <path
           sodipodi:nodetypes="cscc"
           id="path985-9-5"
           d="m 68.06632,115.90095 c 0,0 -2.782649,-1.40632 -3.29442,0.2022 -0.51177,1.60851 -0.22619,2.28287 -0.22619,2.28287 0.78145,-1.34888 1.557551,-2.70488 3.52061,-2.48507 z"
           style="display:inline;fill:#000000;stroke:#000000;stroke-width:0.264583px;stroke-linecap:butt;stroke-linejoin:miter;stroke-opacity:1" />
        <path
           sodipodi:nodetypes="cscc"
           id="path985-8-1"
           d="m 65.682831,114.94432 c 0,0 -2.78265,-1.40632 -3.29442,0.2022 -0.511769,1.60851 -0.22619,2.28287 -0.22619,2.28287 0.78145,-1.34888 1.55755,-2.70488 3.52061,-2.48507 z"
           style="display:inline;fill:#000000;stroke:#000000;stroke-width:0.264583px;stroke-linecap:butt;stroke-linejoin:miter;stroke-opacity:1" />
        <path
           sodipodi:nodetypes="cscc"
           id="path985-8-0"
           d="m 71.261412,116.10413 c 0,0 -2.78265,-1.40632 -3.29442,0.2022 -0.51177,1.60851 -0.22619,2.28287 -0.22619,2.28287 0.78145,-1.34888 1.55755,-2.70488 3.52061,-2.48507 z"
           style="display:inline;fill:#000000;stroke:#000000;stroke-width:0.264583px;stroke-linecap:butt;stroke-linejoin:miter;stroke-opacity:1" />
        <path
           sodipodi:nodetypes="csscscssc"
           id="path1056"
           d="m 84.472528,161.61912 c 0,0 2.98886,-2.778 4.349347,-1.41751 0.07774,0.0777 3.573564,2.16572 3.573564,2.16572 -2.01669,-0.18113 3.414669,-2.15505 3.414669,-2.15505 0,0 5.581322,-0.41962 6.085352,1.62933 0.50402,2.04894 13.22639,1.72113 13.22639,1.72113 0,0 -15.847873,2.44786 -15.784223,0.82081 0.0636,-1.62703 -5.513453,2.58462 -6.523576,0.61431 -0.436038,-0.85052 -8.230676,-3.15705 -8.341523,-3.37874 z"
           style="fill:#c83737;stroke:none;stroke-width:0.264583px;stroke-linecap:butt;stroke-linejoin:miter;stroke-opacity:1" />
        <path
           style="fill:#4d4d4d;stroke:#000000;stroke-width:0.264583px;stroke-linecap:butt;stroke-linejoin:miter;stroke-opacity:1"
           d="m 75.433198,108.25725 c 0,0 -9.631393,-4.38022 -11.974484,-2.81816 -2.343092,1.56207 -1.562061,3.12413 -1.562061,3.12413 l 3.786177,6.3811 c -5.465419,-10.74555 2.941757,-6.99889 9.750368,-6.68707 z"
           id="path1500"
           sodipodi:nodetypes="csccc" />
        <path
           style="fill:#c8ab37;stroke:none;stroke-width:0.264583px;stroke-linecap:butt;stroke-linejoin:miter;stroke-opacity:1"
           d="m 144.67883,145.02791 c 0,0 -5.20777,39.4303 -13.7634,43.52212 -8.55563,4.09182 26.78284,-5.57976 24.55093,-21.57507 -2.2319,-15.9953 12.26927,9.20563 14.763,18.66791 3.38411,12.8407 11.00128,-21.65614 10.15993,-22.38775 l 7.41861,18.27118 c 2.58037,6.35516 7.23293,-15.88219 7.23293,-15.88219 l -29.65234,-51.63597 c 0,0 -3.76157,18.80341 -20.70966,31.01977 z"
           id="path1502"
           sodipodi:nodetypes="cssscsccc" />
        <g
           id="g1506"
           style="opacity:1;stroke:#c8ab37;stroke-opacity:1">
          <path
             sodipodi:nodetypes="cscsscscc"
             style="color:#000000;font-style:normal;font-variant:normal;font-weight:normal;font-stretch:normal;font-size:medium;line-height:normal;font-family:sans-serif;font-variant-ligatures:normal;font-variant-position:normal;font-variant-caps:normal;font-variant-numeric:normal;font-variant-alternates:normal;font-variant-east-asian:normal;font-feature-settings:normal;font-variation-settings:normal;text-indent:0;text-align:start;text-decoration:none;text-decoration-line:none;text-decoration-style:solid;text-decoration-color:#000000;letter-spacing:normal;word-spacing:normal;text-transform:none;writing-mode:lr-tb;direction:ltr;text-orientation:mixed;dominant-baseline:auto;baseline-shift:baseline;text-anchor:start;white-space:normal;shape-padding:0;shape-margin:0;inline-size:0;clip-rule:nonzero;display:inline;overflow:visible;visibility:visible;isolation:auto;mix-blend-mode:normal;color-interpolation:sRGB;color-interpolation-filters:linearRGB;solid-color:#000000;solid-opacity:1;vector-effect:none;fill:#c8ab37;fill-opacity:1;fill-rule:nonzero;stroke:#c8ab37;stroke-width:0.264583px;stroke-linecap:butt;stroke-linejoin:miter;stroke-miterlimit:4;stroke-dasharray:none;stroke-dashoffset:0;stroke-opacity:1;color-rendering:auto;image-rendering:auto;shape-rendering:auto;text-rendering:auto;enable-background:accumulate;stop-color:#000000;stop-opacity:1"
             d="m 62.354179,142.86379 c 0,0 -24.623292,-24.183 -17.077113,9.43179 7.546176,33.6148 -6.860162,25.72561 -6.860162,25.72561 0,0 -3.430082,25.7256 3.43008,19.55146 6.860161,-6.17415 18.865445,-25.3826 19.208453,-15.43536 0.343009,9.94723 -15.778371,20.92349 -15.778371,20.92349 0,0 24.010564,17.49341 30.184709,6.51715 6.174147,-10.97626 12.112444,-29.89238 12.112444,-29.89238 -8.750649,-4.11669 -12.317056,-21.47393 -25.22004,-36.82176 z"
             id="path1508" />
          <path
             style="color:#000000;font-style:normal;font-variant:normal;font-weight:normal;font-stretch:normal;font-size:medium;line-height:normal;font-family:sans-serif;font-variant-ligatures:normal;font-variant-position:normal;font-variant-caps:normal;font-variant-numeric:normal;font-variant-alternates:normal;font-variant-east-asian:normal;font-feature-settings:normal;font-variation-settings:normal;text-indent:0;text-align:start;text-decoration:none;text-decoration-line:none;text-decoration-style:solid;text-decoration-color:#000000;letter-spacing:normal;word-spacing:normal;text-transform:none;writing-mode:lr-tb;direction:ltr;text-orientation:mixed;dominant-baseline:auto;baseline-shift:baseline;text-anchor:start;white-space:normal;shape-padding:0;shape-margin:0;inline-size:0;clip-rule:nonzero;display:inline;overflow:visible;visibility:visible;isolation:auto;mix-blend-mode:normal;color-interpolation:sRGB;color-interpolation-filters:linearRGB;solid-color:#000000;solid-opacity:1;vector-effect:none;fill:#000000;fill-opacity:1;fill-rule:nonzero;stroke:#c8ab37;stroke-width:0.264583px;stroke-linecap:butt;stroke-linejoin:miter;stroke-miterlimit:4;stroke-dasharray:none;stroke-dashoffset:0;stroke-opacity:1;color-rendering:auto;image-rendering:auto;shape-rendering:auto;text-rendering:auto;enable-background:accumulate;stop-color:#000000;stop-opacity:1"
             d="m 49.105469,134.36719 c -0.619893,-0.0807 -1.212784,-0.0729 -1.767578,0.043 -1.109589,0.23174 -2.054867,0.91064 -2.69336,2.16992 -1.276985,2.51856 -1.385264,7.32875 0.503907,15.74414 1.884815,8.396 2.395343,14.19518 2.107421,18.16211 -0.287922,3.96692 -1.37216,6.09225 -2.664062,7.17578 -2.583804,2.16706 -6.111328,0.24219 -6.111328,0.24219 l -0.169922,-0.0918 -0.02539,0.19141 c 0,0 -0.857421,6.43442 -0.857422,12.10742 0,2.8365 0.207489,5.47922 0.867188,7.0625 0.329849,0.79164 0.784475,1.33619 1.408203,1.46094 0.623728,0.12474 1.359962,-0.17768 2.232422,-0.96289 3.452264,-3.10705 8.164408,-9.45133 12.058594,-13.77344 1.947092,-2.16106 3.701514,-3.81387 4.927734,-4.29102 0.306555,-0.11928 0.575965,-0.16428 0.804687,-0.13672 0.228723,0.0276 0.419737,0.12239 0.587891,0.3086 0.336309,0.3724 0.566982,1.13389 0.609375,2.36328 0.168987,4.9006 -3.745246,10.11634 -7.722656,14.09375 -3.97741,3.97741 -7.998047,6.71484 -7.998047,6.71484 l -0.15625,0.10547 0.152344,0.11133 c 0,0 6.009318,4.3798 12.800781,7.38867 3.395731,1.50444 6.98793,2.66824 10.136719,2.76563 3.148788,0.0974 5.870593,-0.89061 7.439453,-3.67969 6.188579,-11.00192 11.962891,-29.8457 11.96289,-29.8457 l 0.03516,-0.11133 -0.105469,-0.0488 C 83.15252,177.60623 80.115636,172.24932 76.558598,165.461 73.001559,158.67268 68.918758,150.46776 62.455082,142.77936 l -0.0039,-0.006 -0.0039,-0.004 c 0,0 -1.544157,-1.51538 -3.740235,-3.26172 -2.196077,-1.74634 -5.044039,-3.72655 -7.677734,-4.6582 -0.658424,-0.23291 -1.303935,-0.40175 -1.923828,-0.48242 z m -0.0332,0.26367 c 0.596559,0.0776 1.224426,0.24069 1.86914,0.46875 2.578856,0.91225 5.416591,2.87772 7.601563,4.61523 2.180659,1.73408 3.704897,3.23235 3.710937,3.23828 6.437666,7.65846 10.511749,15.83963 14.070313,22.63086 3.530328,6.73735 6.557243,12.10014 10.933593,14.22266 -0.04672,0.15215 -5.777434,18.80094 -11.912109,29.70703 -1.518212,2.69905 -4.111501,3.64048 -7.201172,3.54492 -3.08967,-0.0956 -6.658431,-1.24725 -10.037109,-2.74414 -6.623335,-2.93439 -12.368527,-7.09219 -12.59961,-7.25976 0.238206,-0.16334 4.00689,-2.75885 7.88086,-6.63281 3.997527,-3.99753 7.97285,-9.24244 7.798828,-14.28907 -0.04336,-1.25742 -0.2631,-2.07232 -0.675781,-2.52929 -0.206341,-0.22849 -0.464991,-0.36191 -0.751953,-0.39649 -0.286962,-0.0346 -0.599689,0.0244 -0.933594,0.1543 -1.335622,0.51972 -3.074672,2.18996 -5.029297,4.35937 -3.909249,4.33884 -8.631165,10.6868 -12.039063,13.75391 -0.84258,0.75832 -1.500186,1.00074 -2.001953,0.90039 -0.501767,-0.10035 -0.903506,-0.55084 -1.216797,-1.30273 -0.626581,-1.5038 -0.847656,-4.13781 -0.847656,-6.96094 0,-5.5337 0.807046,-11.66766 0.839844,-11.91602 0.279916,0.1478 3.608974,1.8686 6.230469,-0.33008 1.36641,-1.14602 2.468861,-3.35136 2.759765,-7.35937 0.290905,-4.00801 -0.226962,-9.82688 -2.115234,-18.23828 -1.883919,-8.392 -1.744863,-13.16513 -0.527344,-15.56641 0.60876,-1.20064 1.472697,-1.8162 2.511719,-2.0332 0.519511,-0.1085 1.085081,-0.11477 1.681641,-0.0371 z"
             id="path1510" />
        </g>
        <rect
           y="209.72858"
           x="138.61667"
           height="47.407928"
           width="46.892628"
           id="rect900"
           style="opacity:0;fill:#610000;fill-opacity:1;stroke:#c82237;stroke-width:0.264583;stroke-opacity:1" />
        <path
           style="opacity:0;fill:#020000;fill-opacity:1;stroke:#000000;stroke-width:1.00157;stroke-miterlimit:4;stroke-dasharray:none;stroke-opacity:1"
           d="m 432.89151,522.85442 c -35.1884,-9.56308 -43.91961,-18.05966 -40.0529,-38.9766 2.26162,-12.23425 6.32863,-19.8783 11.43922,-21.50033 1.81215,-0.57516 5.04767,-1.80651 7.19003,-2.73635 2.14236,-0.92983 16.78975,-2.64265 32.54975,-3.80627 25.38342,-1.87414 41.84009,-4.63251 52.65793,-8.82621 2.88622,-1.11888 3.40665,-0.1706 3.39745,6.19061 -0.0151,10.45374 -3.14505,20.82022 -11.08738,36.72186 -12.47788,24.98247 -24.7787,38.25829 -35.06064,37.83966 -1.92776,-0.0785 -11.39282,-2.28635 -21.03346,-4.90637 z"
           id="path904"
           transform="scale(0.26458333)" />
        <ellipse
           style="opacity:0;fill:#020000;fill-opacity:1;stroke:#000000;stroke-width:0.264999;stroke-miterlimit:4;stroke-dasharray:none;stroke-opacity:1"
           id="path907"
           cx="82.190926"
           cy="278.52161"
           rx="33.237083"
           ry="19.839188" />
        <ellipse
           style="opacity:0;fill:#020000;fill-opacity:1;stroke:#000000;stroke-width:0.264999;stroke-miterlimit:4;stroke-dasharray:none;stroke-opacity:1"
           id="path909"
           cx="125.99173"
           cy="230.85602"
           rx="21.385099"
           ry="14.428501" />
      </g>
      <path
         sodipodi:nodetypes="cscscscc"
         id="path1066"
         d="m 103.26161,46.271659 c 0,0 13.4515,-15.541152 -17.776681,-25.880758 -28.721595,-9.509681 -41.827489,26.4036 -41.827489,26.4036 0.501815,-0.182478 -30.512668,58.662149 -29.802085,63.002649 1.650299,10.08062 31.768529,-48.294781 39.088339,-57.967387 0,0 19.208722,-31.438862 27.312799,-19.936304 8.104076,11.50256 -2.352797,13.593935 -2.352797,13.593935 0,0 -12.025402,17.51526 -3.659904,12.548245"
         style="fill:#aa8800;stroke:#aa8800;stroke-width:0.264583px;stroke-linecap:butt;stroke-linejoin:miter;stroke-opacity:1" />
      <path
         sodipodi:nodetypes="cssc"
         id="path1068"
         d="m 103.26161,46.271658 c 0,0 -15.967015,6.418106 -15.793123,7.11368 0.173892,0.695574 -13.957271,8.039588 -15.485312,6.389237 -2.506185,-2.70679 -0.528401,-15.350509 5.920521,-14.287181"
         style="fill:#aa8800;stroke:#a05a2c;stroke-width:0.264583px;stroke-linecap:butt;stroke-linejoin:miter;stroke-opacity:1" />
      <path
         sodipodi:nodetypes="ccscsssscssscsc"
         id="path1070"
         d="m 13.855355,109.79715 c -3.184819,10.08526 1.537937,9.89896 1.537937,9.89896 0,0 17.875957,-34.442808 7.696645,2.91942 -10.142124,37.22573 5.320151,5.57748 2.919419,4.77723 0,0 7.978771,5.21811 2.919417,9.02365 -4.227997,3.18021 -1.996411,22.12934 -0.530804,27.07096 1.570323,5.29469 10.118168,-31.5328 9.819857,-23.62074 -0.164706,4.36846 -3.025349,66.2154 7.96205,48.5685 C 55.937764,172.76294 31.886213,123.54792 62.354179,142.86379 63.820603,142.20776 51.138253,89.419496 54.917041,79.303993 58.470142,69.792635 68.542629,62.919973 71.442218,60.535009 74.607099,57.931837 66.79595,48.458031 77.903696,45.487394 94.855437,40.953849 75.544637,24.742882 74.350807,28.722316 73.551407,22.327119 54.075324,46.437526 49.6278,54.354257 46.957603,59.10729 17.695863,114.23641 13.855355,109.79715 Z"
         style="fill:#aa8800;stroke:#aa8800;stroke-width:0.264583px;stroke-linecap:butt;stroke-linejoin:miter;stroke-opacity:1" />
      <path
         sodipodi:nodetypes="cscssc"
         id="path1072"
         d="m 54.764131,121.5681 c -2.126733,-1.16224 13.242788,-51.120274 10.702912,-49.431567 -4.242427,2.820695 -1.33416,-2.031757 0.599888,-4.049244 0,0 10.521592,-7.784242 7.056336,-8.251986 -4.45194,-0.600927 -22.040567,16.646741 -19.504012,22.499325 0.886763,2.046026 -4.79554,41.873442 1.144876,39.233472 z"
         style="fill:#d4aa00;stroke:#aa8800;stroke-width:0.264583px;stroke-linecap:butt;stroke-linejoin:miter;stroke-opacity:1" />
      <path
         sodipodi:nodetypes="cscc"
         id="path1074"
         d="m 59.437968,99.24113 c -0.771983,-0.110283 4.632588,43.53587 2.916211,43.62266 -2.913715,0.14734 -5.370563,-33.48513 -5.370563,-33.48513 l 2.454352,-10.13753"
         style="fill:#d4aa00;stroke:#d4aa00;stroke-width:0.264583px;stroke-linecap:butt;stroke-linejoin:miter;stroke-opacity:1" />
      <path
         sodipodi:nodetypes="cssscsssc"
         id="path1076"
         d="m 91.013419,21.740048 c 0,0 56.008261,-25.7932773 65.957091,-4.05323 9.94884,21.740048 46.79638,27.635653 43.84857,52.323505 -2.9478,24.68785 -15.47596,56.008257 -4.79018,56.745207 10.68579,0.73695 9.94884,29.84651 9.94884,29.84651 0,0 -2.46945,-19.83414 -13.26511,-17.31835 -11.40867,2.65865 6.36834,15.95985 4.79017,27.26719 C 195.76803,178.98021 135.96742,61.903863 147.02168,56.008259 158.07594,50.112652 116.06975,21.371572 91.013419,21.740048 Z"
         style="fill:#aa8800;stroke:#aa8800;stroke-width:0.264583px;stroke-linecap:butt;stroke-linejoin:miter;stroke-opacity:1" />
      <path
         sodipodi:nodetypes="cscscsssscsccsssc"
         id="path1078"
         d="m 87.587721,22.362902 c 0,0 29.664569,14.229777 12.691789,25.285436 -16.972774,11.055662 3.73713,12.924224 3.73713,12.924224 0,0 -8.178679,-17.311049 3.73712,-12.301368 18.04234,7.585425 15.51848,3.771301 15.51754,3.76974 -0.91252,1.140649 4.23478,3.480762 4.19667,3.638697 -0.31618,1.310336 6.36254,22.551344 7.27908,25.436148 0.90572,2.850735 1.28705,23.485381 2.53276,23.485381 1.24571,0 2.74631,10.66966 2.55094,11.09399 -1.66352,3.613 -7.22162,13.41803 -5.03412,11.18255 -6.88811,7.41703 -17.16313,33.64588 3.6327,7.8145 3.3752,-4.19248 -1.88748,10.78207 -1.71285,10.43281 l -8.21886,13.65301 c 0,0 45.8322,-28.80393 35.78586,-49.41903 -9.65411,-19.810245 -19.54671,-50.118873 -17.75705,-50.343563 2.18496,-0.274318 9.18771,-6.944643 -11.21138,-21.332755 C 114.64431,23.102958 88.179115,19.701631 87.587721,22.362902 Z"
         style="fill:#d4aa00;stroke:#aa8800;stroke-width:0.264583px;stroke-linecap:butt;stroke-linejoin:miter;stroke-opacity:1" />
      <path
         style="fill:#4d4d4d;stroke:#000000;stroke-width:0.264583px;stroke-linecap:butt;stroke-linejoin:miter;stroke-opacity:1"
         d="m 107.92247,108.02876 c 0,0 0.055,-5.21007 6.30322,-6.77213 6.24824,-1.562057 16.9874,1.17155 16.9874,1.17155 1.80534,1.41848 0.11215,8.45618 -8.46327,3.84123 -3.07634,-1.65556 -8.15824,-0.004 -14.82735,1.75935 z"
         id="path1498"
         sodipodi:nodetypes="cscsc" />
    </g>
  </g>
</svg>
